%!PS-Adobe-3.0 EPSF-3.0
%%Creator: cairo 1.14.2 (http://cairographics.org)
%%CreationDate: Tue May 10 11:30:39 2016
%%Pages: 1
%%DocumentData: Clean7Bit
%%LanguageLevel: 2
%%BoundingBox: 0 -1 46 48
%%EndComments
%%BeginProlog
save
50 dict begin
/q { gsave } bind def
/Q { grestore } bind def
/cm { 6 array astore concat } bind def
/w { setlinewidth } bind def
/J { setlinecap } bind def
/j { setlinejoin } bind def
/M { setmiterlimit } bind def
/d { setdash } bind def
/m { moveto } bind def
/l { lineto } bind def
/c { curveto } bind def
/h { closepath } bind def
/re { exch dup neg 3 1 roll 5 3 roll moveto 0 rlineto
      0 exch rlineto 0 rlineto closepath } bind def
/S { stroke } bind def
/f { fill } bind def
/f* { eofill } bind def
/n { newpath } bind def
/W { clip } bind def
/W* { eoclip } bind def
/BT { } bind def
/ET { } bind def
/pdfmark where { pop globaldict /?pdfmark /exec load put }
    { globaldict begin /?pdfmark /pop load def /pdfmark
    /cleartomark load def end } ifelse
/BDC { mark 3 1 roll /BDC pdfmark } bind def
/EMC { mark /EMC pdfmark } bind def
/cairo_store_point { /cairo_point_y exch def /cairo_point_x exch def } def
/Tj { show currentpoint cairo_store_point } bind def
/TJ {
  {
    dup
    type /stringtype eq
    { show } { -0.001 mul 0 cairo_font_matrix dtransform rmoveto } ifelse
  } forall
  currentpoint cairo_store_point
} bind def
/cairo_selectfont { cairo_font_matrix aload pop pop pop 0 0 6 array astore
    cairo_font exch selectfont cairo_point_x cairo_point_y moveto } bind def
/Tf { pop /cairo_font exch def /cairo_font_matrix where
      { pop cairo_selectfont } if } bind def
/Td { matrix translate cairo_font_matrix matrix concatmatrix dup
      /cairo_font_matrix exch def dup 4 get exch 5 get cairo_store_point
      /cairo_font where { pop cairo_selectfont } if } bind def
/Tm { 2 copy 8 2 roll 6 array astore /cairo_font_matrix exch def
      cairo_store_point /cairo_font where { pop cairo_selectfont } if } bind def
/g { setgray } bind def
/rg { setrgbcolor } bind def
/d1 { setcachedevice } bind def
%%EndProlog
%%BeginSetup
%%EndSetup
%%Page: 1 1
%%BeginPageSetup
%%PageBoundingBox: 0 -1 46 48
%%EndPageSetup
q 0 -1 46 49 rectclip q
0 g
18.285 47.586 m 17.918 47.586 17.59 47.507 17.301 47.347 c 16.059 47.101
 15.258 46.308 14.668 45.726 c 14.277 45.34 13.938 45.004 13.645 45.004 
c 13.27 45.027 12.926 45.043 12.605 45.043 c 10.438 45.043 9.305 44.285 
8.277 42.152 c 8.242 42.082 8.207 42.039 8.172 41.984 c 8.793 41.984 l 11.438
 41.984 13.594 39.832 13.594 37.187 c 13.594 36.742 13.234 36.386 12.793
 36.386 c 12.352 36.386 11.992 36.742 11.992 37.187 c 11.992 38.949 10.559
 40.386 8.793 40.386 c 5.016 40.386 l 3.07 38.949 1.875 36.359 2.031 33.757
 c 2.109 32.484 1.762 30.398 1.145 29.437 c -0.383 27.062 -0.383 23.746 
1.145 21.371 c 1.379 21.007 1.727 20.578 2.125 20.086 c 2.84 19.203 4.035
 17.73 3.992 17.054 c 3.812 14.066 5.637 10.621 8.059 9.379 c 8.496 9.152
 8.57 8.925 8.734 8.242 c 8.754 8.168 8.773 8.086 8.793 8.004 c 8.793 9.004
 l 8.793 12.093 11.305 14.605 14.391 14.605 c 14.832 14.605 15.191 14.246
 15.191 13.804 c 15.191 13.363 14.832 13.004 14.391 13.004 c 12.188 13.004
 10.391 11.211 10.391 9.004 c 10.391 5.437 l 10.82 5.144 11.258 4.976 11.629
 4.836 c 12.375 4.55 12.688 4.433 12.801 3.613 c 13.113 1.351 14.449 -0 
16.383 -0 c 19.227 -0 22.391 3.043 22.391 7.406 c 22.391 37.004 l 22.391
 36.562 22.035 36.207 21.594 36.207 c 18.945 36.207 16.793 34.05 16.793 
31.406 c 16.793 27.875 13.922 25.004 10.391 25.004 c 9.949 25.004 9.594 
25.363 9.594 25.804 c 9.594 26.246 9.949 26.605 10.391 26.605 c 13.039 26.605
 15.191 28.757 15.191 31.406 c 15.191 34.933 18.062 37.804 21.594 37.804
 c 22.035 37.804 22.391 37.449 22.391 37.004 c 22.391 44.207 l 22.395 45.804
 19.945 47.586 18.285 47.586 c h
15.992 21.199 m 15.992 22.746 16.598 24.199 17.691 25.297 c 18.004 25.609
 18.512 25.609 18.824 25.297 c 19.137 24.984 19.137 24.476 18.824 24.164
 c 18.031 23.371 17.594 22.316 17.594 21.199 c 17.594 20.078 18.031 19.027
 18.824 18.234 c 19.137 17.922 19.137 17.414 18.824 17.101 c 18.031 16.308
 17.594 15.254 17.594 14.136 c 17.594 13.015 18.031 11.965 18.824 11.172
 c 19.137 10.859 19.137 10.351 18.824 10.039 c 18.668 9.882 18.461 9.804
 18.258 9.804 c 18.051 9.804 17.848 9.882 17.691 10.039 c 16.598 11.132 
15.992 12.59 15.992 14.136 c 15.992 15.429 16.422 16.656 17.199 17.668 c
 16.422 18.675 15.992 19.902 15.992 21.199 c h
10.27 19.199 m 9.957 18.355 10.391 17.414 11.238 17.101 c 11.652 16.949
 11.863 16.488 11.711 16.074 c 11.59 15.754 11.285 15.55 10.961 15.55 c 
10.867 15.55 10.773 15.566 10.684 15.601 c 9.012 16.218 8.152 18.082 8.766
 19.754 c 8.766 19.757 l 9.078 20.601 8.645 21.543 7.801 21.855 c 7.387 
22.007 7.172 22.468 7.328 22.882 c 7.48 23.297 7.941 23.507 8.355 23.355
 c 10.027 22.738 10.887 20.875 10.27 19.199 c h
11.727 31.461 m 11.246 30.156 10.004 29.347 8.688 29.347 c 8.316 29.347
 7.941 29.41 7.574 29.547 c 6.727 29.859 5.785 29.425 5.473 28.578 c 5.355
 28.257 5.051 28.054 4.723 28.054 c 4.633 28.054 4.539 28.074 4.445 28.105
 c 4.031 28.257 3.82 28.718 3.973 29.132 c 4.59 30.804 6.453 31.66 8.125
 31.047 c 8.969 30.734 9.914 31.168 10.227 32.015 c 10.379 32.429 10.84 
32.64 11.254 32.488 c 11.668 32.336 11.879 31.875 11.727 31.461 c h
11.727 31.461 m f
44.457 29.617 m 43.836 30.582 43.492 32.668 43.57 33.937 c 43.727 36.543
 42.527 39.129 40.586 40.566 c 36.809 40.566 l 35.484 40.566 34.406 39.488
 34.406 38.168 c 34.406 37.722 34.051 37.367 33.609 37.367 c 33.168 37.367
 32.809 37.722 32.809 38.168 c 32.809 40.371 34.602 42.168 36.809 42.168
 c 37.43 42.168 l 37.395 42.218 37.359 42.265 37.324 42.332 c 36.297 44.465
 35.164 45.222 32.996 45.222 c 32.68 45.222 32.332 45.207 31.938 45.183 
c 31.715 45.183 31.363 45.558 31.027 45.918 c 30.434 46.554 29.641 47.402
 28.387 47.547 c 27.98 47.586 l 25.395 47.586 23.207 46.121 23.207 44.386
 c 23.207 7.586 l 23.207 3.222 26.375 0.183 29.219 0.179 c 31.148 0.179 
32.488 1.531 32.801 3.793 c 32.914 4.613 33.223 4.73 33.973 5.015 c 34.344
 5.156 34.781 5.324 35.207 5.621 c 35.207 9.187 l 35.207 11.39 33.414 13.187
 31.207 13.187 c 30.766 13.187 30.406 13.543 30.406 13.984 c 30.406 14.429
 30.766 14.785 31.207 14.785 c 34.297 14.785 36.809 12.273 36.809 9.187 
c 36.809 8.183 l 36.828 8.265 36.848 8.347 36.867 8.422 c 37.031 9.105 37.105
 9.336 37.543 9.558 c 39.965 10.8 41.789 14.246 41.605 17.234 c 41.602 17.359
 41.645 17.519 41.711 17.691 c 39.324 20.461 l 38.445 21.918 36.906 22.785
 35.207 22.785 c 31.68 22.785 28.809 25.656 28.809 29.187 c 28.809 29.629
 29.168 29.984 29.609 29.984 c 30.051 29.984 30.406 29.629 30.406 29.187
 c 30.406 26.539 32.562 24.386 35.207 24.386 c 37.449 24.386 39.484 23.25
 40.656 21.343 c 42.578 19.121 l 42.883 19.539 43.211 19.941 43.473 20.265
 c 43.875 20.761 44.219 21.187 44.457 21.554 c 45.98 23.925 45.98 27.246
 44.457 29.617 c h
28.988 22.804 m 31.098 20.691 31.098 17.257 28.988 15.144 c 28.266 14.425
 27.871 13.465 27.871 12.449 c 27.871 11.429 28.266 10.472 28.988 9.754 
c 29.301 9.441 29.301 8.933 28.988 8.621 c 28.832 8.465 28.629 8.386 28.422
 8.386 c 28.219 8.386 28.012 8.465 27.855 8.621 c 26.832 9.644 26.27 11.004
 26.27 12.449 c 26.27 13.894 26.832 15.254 27.855 16.277 c 29.344 17.761
 29.344 20.183 27.855 21.672 c 27.543 21.984 27.543 22.488 27.855 22.8 c
 28.168 23.113 28.676 23.113 28.988 22.804 c h
38.535 28.832 m 38.223 28.781 37.906 28.75 37.598 28.75 c 35.02 28.75 32.73
 30.605 32.266 33.23 c 32.09 34.234 31.535 35.109 30.699 35.695 c 29.867
 36.277 28.855 36.507 27.852 36.328 c 27.414 36.254 27 36.543 26.926 36.976
 c 26.848 37.414 27.137 37.828 27.574 37.902 c 29 38.152 30.438 37.832 31.621
 37.004 c 32.801 36.175 33.594 34.933 33.844 33.507 c 34.207 31.437 36.188
 30.043 38.258 30.41 c 38.695 30.488 39.109 30.195 39.188 29.761 c 39.262
 29.324 38.973 28.91 38.535 28.832 c h
38.535 28.832 m f
Q Q
showpage
%%Trailer
end restore
%%EOF
