%!PS-Adobe-3.0 EPSF-3.0
%%Creator: cairo 1.14.2 (http://cairographics.org)
%%CreationDate: Tue May 10 11:29:37 2016
%%Pages: 1
%%DocumentData: Clean7Bit
%%LanguageLevel: 2
%%BoundingBox: 0 -1 48 28
%%EndComments
%%BeginProlog
save
50 dict begin
/q { gsave } bind def
/Q { grestore } bind def
/cm { 6 array astore concat } bind def
/w { setlinewidth } bind def
/J { setlinecap } bind def
/j { setlinejoin } bind def
/M { setmiterlimit } bind def
/d { setdash } bind def
/m { moveto } bind def
/l { lineto } bind def
/c { curveto } bind def
/h { closepath } bind def
/re { exch dup neg 3 1 roll 5 3 roll moveto 0 rlineto
      0 exch rlineto 0 rlineto closepath } bind def
/S { stroke } bind def
/f { fill } bind def
/f* { eofill } bind def
/n { newpath } bind def
/W { clip } bind def
/W* { eoclip } bind def
/BT { } bind def
/ET { } bind def
/pdfmark where { pop globaldict /?pdfmark /exec load put }
    { globaldict begin /?pdfmark /pop load def /pdfmark
    /cleartomark load def end } ifelse
/BDC { mark 3 1 roll /BDC pdfmark } bind def
/EMC { mark /EMC pdfmark } bind def
/cairo_store_point { /cairo_point_y exch def /cairo_point_x exch def } def
/Tj { show currentpoint cairo_store_point } bind def
/TJ {
  {
    dup
    type /stringtype eq
    { show } { -0.001 mul 0 cairo_font_matrix dtransform rmoveto } ifelse
  } forall
  currentpoint cairo_store_point
} bind def
/cairo_selectfont { cairo_font_matrix aload pop pop pop 0 0 6 array astore
    cairo_font exch selectfont cairo_point_x cairo_point_y moveto } bind def
/Tf { pop /cairo_font exch def /cairo_font_matrix where
      { pop cairo_selectfont } if } bind def
/Td { matrix translate cairo_font_matrix matrix concatmatrix dup
      /cairo_font_matrix exch def dup 4 get exch 5 get cairo_store_point
      /cairo_font where { pop cairo_selectfont } if } bind def
/Tm { 2 copy 8 2 roll 6 array astore /cairo_font_matrix exch def
      cairo_store_point /cairo_font where { pop cairo_selectfont } if } bind def
/g { setgray } bind def
/rg { setrgbcolor } bind def
/d1 { setcachedevice } bind def
%%EndProlog
%%BeginSetup
%%EndSetup
%%Page: 1 1
%%BeginPageSetup
%%PageBoundingBox: 0 -1 48 28
%%EndPageSetup
q 0 -1 48 29 rectclip q
0 g
5.469 16.891 m 4.957 17.247 l 3.402 15.88 l 2.766 15.321 2.402 14.505 2.398
 13.645 c 2.398 12.782 2.762 11.966 3.398 11.407 c 5.008 9.985 l 5.527 10.356
 l 6.574 11.106 7.199 12.321 7.199 13.598 c 7.199 14.911 6.555 16.141 5.469
 16.891 c h
5.469 16.891 m f
42.711 18.68 m 40.852 20.602 38.992 22.11 37.031 23.29 c 32.977 25.72 28.379
 27.048 23.695 27.177 c 23.527 27.18 23.367 27.2 23.199 27.2 c 23.168 27.2
 23.137 27.196 23.105 27.196 c 23.059 27.196 23.008 27.2 22.961 27.2 c 16.316
 27.2 9.855 24.743 4.773 20.278 c 1.816 17.68 l 0.664 16.669 0 15.196 0 
13.645 c 0 12.095 0.656 10.622 1.809 9.606 c 4.805 6.962 l 9.895 2.473 16.371
 0.001 23.039 0.001 c 23.074 0.001 23.105 0.005 23.141 0.005 c 23.16 0.005
 23.18 0.001 23.199 0.001 c 23.289 0.001 23.375 0.013 23.461 0.013 c 27.828
 0.083 32.164 1.208 36.027 3.294 c 38.43 4.595 40.746 6.399 42.922 8.661
 c 47.645 13.579 l h
14.68 3.016 m 11.477 4.122 8.477 5.86 5.863 8.165 c 2.867 10.809 l 2.062
 11.52 1.598 12.552 1.602 13.645 c 1.602 14.735 2.066 15.77 2.871 16.481
 c 5.832 19.079 l 8.473 21.399 11.508 23.138 14.75 24.239 c 11.617 21.743
 9.602 17.907 9.602 13.598 c 9.602 9.325 11.586 5.509 14.68 3.016 c h
29.602 12.802 m 28.734 12.802 l 28.703 12.559 28.652 12.325 28.59 12.095
 c 29.379 11.747 l 29.781 11.567 29.965 11.098 29.785 10.692 c 29.656 10.395
 29.363 10.216 29.055 10.216 c 28.945 10.216 28.836 10.235 28.73 10.282 
c 27.941 10.634 l 27.859 10.501 27.77 10.376 27.68 10.255 c 28.293 9.641
 l 28.605 9.329 28.605 8.821 28.293 8.509 c 28.137 8.352 27.93 8.274 27.727
 8.274 c 27.52 8.274 27.316 8.352 27.16 8.509 c 26.547 9.122 l 26.355 8.977
 26.156 8.845 25.945 8.727 c 26.258 7.923 l 26.418 7.509 26.215 7.048 25.801
 6.888 c 25.707 6.848 25.609 6.833 25.512 6.833 c 25.191 6.833 24.891 7.028
 24.766 7.345 c 24.457 8.149 l 24.305 8.114 24.156 8.087 24 8.063 c 24 7.2
 l 24 6.759 23.641 6.399 23.199 6.399 c 22.758 6.399 22.402 6.759 22.402
 7.2 c 22.402 8.063 l 22.16 8.098 21.926 8.149 21.695 8.212 c 21.348 7.423
 l 21.215 7.122 20.922 6.946 20.613 6.946 c 20.508 6.946 20.398 6.966 20.293
 7.013 c 19.887 7.192 19.703 7.665 19.883 8.067 c 20.234 8.86 l 20.102 8.942
 19.977 9.028 19.855 9.122 c 19.242 8.509 l 19.086 8.352 18.879 8.274 18.676
 8.274 c 18.469 8.274 18.266 8.352 18.109 8.509 c 17.797 8.821 17.797 9.329
 18.109 9.641 c 18.723 10.255 l 18.578 10.446 18.445 10.645 18.328 10.856
 c 17.52 10.544 l 17.426 10.505 17.328 10.489 17.23 10.489 c 16.91 10.489
 16.609 10.68 16.484 11.001 c 16.328 11.411 16.531 11.876 16.941 12.036 
c 17.746 12.345 l 17.711 12.497 17.688 12.645 17.664 12.802 c 16.801 12.802
 l 16.359 12.802 16 13.157 16 13.602 c 16 14.044 16.359 14.399 16.801 14.399
 c 17.664 14.399 l 17.699 14.641 17.746 14.876 17.812 15.106 c 17.023 15.454
 l 16.617 15.634 16.434 16.102 16.613 16.509 c 16.793 16.911 17.266 17.095
 17.668 16.919 c 18.461 16.567 l 18.543 16.7 18.629 16.825 18.723 16.946
 c 18.109 17.559 l 17.797 17.872 17.797 18.38 18.109 18.692 c 18.422 19.005
 18.926 19.005 19.238 18.692 c 19.852 18.079 l 20.043 18.223 20.242 18.356
 20.453 18.473 c 20.141 19.278 l 19.98 19.692 20.188 20.153 20.598 20.313
 c 21.008 20.473 21.473 20.27 21.633 19.856 c 21.945 19.055 l 22.094 19.087
 22.246 19.114 22.398 19.138 c 22.398 20.001 l 22.398 20.442 22.758 20.802
 23.199 20.802 c 23.641 20.802 24 20.442 24 20.001 c 24 19.138 l 24.238 
19.102 24.473 19.055 24.703 18.989 c 25.055 19.778 l 25.23 20.184 25.703
 20.364 26.109 20.188 c 26.512 20.009 26.695 19.536 26.516 19.134 c 26.168
 18.341 l 26.297 18.259 26.422 18.173 26.547 18.079 c 27.16 18.692 l 27.473
 19.005 27.977 19.005 28.289 18.692 c 28.602 18.38 28.602 17.876 28.289 
17.563 c 27.676 16.95 l 27.82 16.759 27.953 16.559 28.074 16.348 c 28.879
 16.657 l 29.289 16.817 29.754 16.614 29.91 16.2 c 30.07 15.79 29.867 15.325
 29.453 15.165 c 28.652 14.856 l 28.688 14.704 28.711 14.555 28.734 14.399
 c 29.602 14.399 l 30.043 14.399 30.398 14.044 30.398 13.602 c 30.398 13.157
 30.043 12.802 29.602 12.802 c h
41.766 9.77 m 39.707 7.626 37.523 5.919 35.266 4.704 c 34.203 4.126 33.098
 3.638 31.965 3.22 c 34.918 5.716 36.801 9.438 36.801 13.598 c 36.801 17.731
 34.941 21.43 32.027 23.927 c 33.469 23.38 34.871 22.72 36.211 21.915 c 
38.047 20.813 39.801 19.391 41.562 17.567 c 45.422 13.575 l h
41.766 9.77 m f
Q Q
showpage
%%Trailer
end restore
%%EOF
