%!PS-Adobe-3.0 EPSF-3.0
%%Creator: cairo 1.14.2 (http://cairographics.org)
%%CreationDate: Tue May 10 11:30:32 2016
%%Pages: 1
%%DocumentData: Clean7Bit
%%LanguageLevel: 2
%%BoundingBox: 0 -1 39 48
%%EndComments
%%BeginProlog
save
50 dict begin
/q { gsave } bind def
/Q { grestore } bind def
/cm { 6 array astore concat } bind def
/w { setlinewidth } bind def
/J { setlinecap } bind def
/j { setlinejoin } bind def
/M { setmiterlimit } bind def
/d { setdash } bind def
/m { moveto } bind def
/l { lineto } bind def
/c { curveto } bind def
/h { closepath } bind def
/re { exch dup neg 3 1 roll 5 3 roll moveto 0 rlineto
      0 exch rlineto 0 rlineto closepath } bind def
/S { stroke } bind def
/f { fill } bind def
/f* { eofill } bind def
/n { newpath } bind def
/W { clip } bind def
/W* { eoclip } bind def
/BT { } bind def
/ET { } bind def
/pdfmark where { pop globaldict /?pdfmark /exec load put }
    { globaldict begin /?pdfmark /pop load def /pdfmark
    /cleartomark load def end } ifelse
/BDC { mark 3 1 roll /BDC pdfmark } bind def
/EMC { mark /EMC pdfmark } bind def
/cairo_store_point { /cairo_point_y exch def /cairo_point_x exch def } def
/Tj { show currentpoint cairo_store_point } bind def
/TJ {
  {
    dup
    type /stringtype eq
    { show } { -0.001 mul 0 cairo_font_matrix dtransform rmoveto } ifelse
  } forall
  currentpoint cairo_store_point
} bind def
/cairo_selectfont { cairo_font_matrix aload pop pop pop 0 0 6 array astore
    cairo_font exch selectfont cairo_point_x cairo_point_y moveto } bind def
/Tf { pop /cairo_font exch def /cairo_font_matrix where
      { pop cairo_selectfont } if } bind def
/Td { matrix translate cairo_font_matrix matrix concatmatrix dup
      /cairo_font_matrix exch def dup 4 get exch 5 get cairo_store_point
      /cairo_font where { pop cairo_selectfont } if } bind def
/Tm { 2 copy 8 2 roll 6 array astore /cairo_font_matrix exch def
      cairo_store_point /cairo_font where { pop cairo_selectfont } if } bind def
/g { setgray } bind def
/rg { setrgbcolor } bind def
/d1 { setcachedevice } bind def
%%EndProlog
%%BeginSetup
%%EndSetup
%%Page: 1 1
%%BeginPageSetup
%%PageBoundingBox: 0 -1 39 48
%%EndPageSetup
q 0 -1 39 49 rectclip q
0 g
36.883 26.962 m 36.602 27.028 l 36.797 27.239 l 37.535 28.028 37.492 29.27
 36.703 30.013 c 36.062 30.61 l 35.301 31.317 34 31.27 33.289 30.513 c 31.336
 28.423 l 30.164 30.099 28.602 31.626 26.469 32.931 c 27.234 33.067 27.859
 33.231 28.395 33.536 c 32.801 33.536 l 34.562 33.536 36 34.974 36 36.739
 c 36 38.501 34.562 39.938 32.801 39.938 c 28 39.938 l 27.422 40.212 26.734
 40.349 25.789 40.36 c 25.625 40.36 25.473 40.474 25.418 40.638 c 25.289
 41.013 25.141 41.384 24.977 41.739 c 25.711 42.474 l 26.961 43.724 26.961
 45.751 25.711 47.001 c 24.504 48.212 22.395 48.208 21.188 47.001 c 20.324
 46.138 l 18.711 46.61 17.016 46.353 15.5 45.403 c 15.375 45.325 15.18 45.38
 15.078 45.513 c 14.691 46.024 14.227 46.603 13.578 46.931 c 12.801 47.325
 11.418 47.087 10.539 46.493 c 9.902 46.06 9.891 45.126 10.066 43.853 c 
10.098 43.645 10.145 43.435 10.203 43.224 c 11.98 41.954 l 14.918 40.005
 16.055 37.489 15.156 34.876 c 14.02 31.567 8.316 27.204 3.645 26.067 c 
2.355 25.724 l 0.938 19.224 2.555 13.411 7.211 8.415 c 12.492 2.751 19.336
 0.001 28.145 0.001 c 29.156 0.001 30.207 0.036 31.273 0.11 c 34.176 0.31
 35.938 2.177 35.992 5.103 c 36.031 7.22 35.891 9.513 35.574 11.915 c 35.445
 12.872 35.34 13.837 35.23 14.806 c 34.934 17.466 34.629 20.161 33.926 22.72
 c 35.797 22.286 l 35.941 22.251 36.09 22.235 36.242 22.235 c 37.156 22.235
 37.941 22.86 38.148 23.751 c 38.348 24.606 l 38.594 25.661 37.938 26.716
 36.883 26.962 c h
27.199 38.337 m 30.043 38.337 l 29.77 37.864 29.602 37.321 29.602 36.735
 c 29.602 36.149 29.77 35.61 30.043 35.138 c 27.199 35.138 l 26.316 35.138
 25.602 35.853 25.602 36.735 c 25.602 37.618 26.316 38.337 27.199 38.337
 c h
30.844 11.27 m 28.801 9.907 l 28.801 7.938 l 28.801 7.493 28.441 7.138 
28 7.138 c 27.559 7.138 27.199 7.493 27.199 7.938 c 27.199 9.853 l 25.715
 10.634 24.383 11.47 23.199 12.349 c 23.199 9.536 l 23.199 9.095 22.84 8.739
 22.398 8.739 c 21.957 8.739 21.598 9.095 21.598 9.536 c 21.598 13.645 l
 19.473 15.54 17.996 17.626 17.172 19.888 c 14.523 17.235 14.559 12.716 
17.277 9.536 c 19.199 9.536 l 19.641 9.536 20 9.181 20 8.739 c 20 8.294 
19.641 7.938 19.199 7.938 c 17.609 7.938 l 17.598 6.333 l 17.598 5.892 17.238
 5.536 16.801 5.536 c 16.793 5.536 l 16.352 5.54 15.996 5.899 16 6.341 c
 16.012 8.548 l 12.688 12.481 12.816 18.157 16.355 21.333 c 16.457 21.427
 16.578 21.474 16.703 21.505 c 15.484 27.02 18.41 31.403 18.539 31.591 c
 18.789 31.954 19.285 32.048 19.648 31.798 c 20.016 31.548 20.109 31.052
 19.859 30.685 c 19.844 30.661 18.824 29.122 18.305 26.81 c 19.945 27.474
 21.781 27.31 23.691 26.286 c 24.508 25.849 25.328 25.251 26.129 24.532 
c 28.32 26.177 l 28.672 26.442 29.176 26.372 29.438 26.017 c 29.703 25.665
 29.633 25.161 29.277 24.899 c 27.281 23.399 l 27.898 22.731 28.496 21.993
 29.051 21.196 c 29.305 20.833 29.215 20.333 28.855 20.079 c 28.715 19.985
 28.555 19.938 28.398 19.938 c 28.145 19.938 27.895 20.056 27.738 20.278
 c 27.312 20.892 26.863 21.458 26.398 21.985 c 26.398 19.938 l 26.398 19.493
 26.043 19.138 25.602 19.138 c 25.156 19.138 24.801 19.493 24.801 19.938
 c 24.801 23.138 l 24.801 23.267 24.832 23.388 24.891 23.501 c 24.242 24.063
 23.586 24.528 22.938 24.876 c 21.102 25.86 19.465 25.86 18.059 24.88 c 
18.047 24.872 18.035 24.872 18.027 24.868 c 17.965 23.817 18.035 22.681 
18.336 21.497 c 18.926 19.192 20.27 17.063 22.348 15.126 c 22.367 15.126
 22.383 15.134 22.398 15.134 c 27.199 15.134 l 27.641 15.134 28 14.778 28
 14.337 c 28 13.892 27.641 13.536 27.199 13.536 c 24.285 13.536 l 25.371
 12.739 26.594 11.985 27.953 11.267 c 29.957 12.603 l 30.324 12.845 30.82
 12.747 31.066 12.38 c 31.309 12.013 31.211 11.517 30.844 11.27 c h
30.844 11.27 m f
4.426 36.755 m 4.367 34.251 4.309 31.665 3.473 29.474 c 3.223 28.81 3.008
 28.153 2.812 27.501 c 3.25 27.618 l 7.715 28.704 12.773 32.872 13.645 35.399
 c 14.461 37.778 12.695 39.56 11.07 40.638 c 10.527 41.024 l 10.086 40.708
 9.121 40.411 8.293 40.454 c 8.105 40.466 7.918 40.47 7.762 40.47 c 3.969
 44.263 l 3.227 45.005 1.934 45.005 1.195 44.263 c 0.574 43.642 l -0.191
 42.88 -0.191 41.634 0.574 40.868 c 4.438 37.009 l 4.434 36.927 4.43 36.841
 4.426 36.755 c h
4.426 36.755 m f
Q Q
showpage
%%Trailer
end restore
%%EOF
