%!PS-Adobe-3.0 EPSF-3.0
%%Creator: cairo 1.14.2 (http://cairographics.org)
%%CreationDate: Tue May 10 11:18:20 2016
%%Pages: 1
%%DocumentData: Clean7Bit
%%LanguageLevel: 2
%%BoundingBox: 0 -1 42 46
%%EndComments
%%BeginProlog
save
50 dict begin
/q { gsave } bind def
/Q { grestore } bind def
/cm { 6 array astore concat } bind def
/w { setlinewidth } bind def
/J { setlinecap } bind def
/j { setlinejoin } bind def
/M { setmiterlimit } bind def
/d { setdash } bind def
/m { moveto } bind def
/l { lineto } bind def
/c { curveto } bind def
/h { closepath } bind def
/re { exch dup neg 3 1 roll 5 3 roll moveto 0 rlineto
      0 exch rlineto 0 rlineto closepath } bind def
/S { stroke } bind def
/f { fill } bind def
/f* { eofill } bind def
/n { newpath } bind def
/W { clip } bind def
/W* { eoclip } bind def
/BT { } bind def
/ET { } bind def
/pdfmark where { pop globaldict /?pdfmark /exec load put }
    { globaldict begin /?pdfmark /pop load def /pdfmark
    /cleartomark load def end } ifelse
/BDC { mark 3 1 roll /BDC pdfmark } bind def
/EMC { mark /EMC pdfmark } bind def
/cairo_store_point { /cairo_point_y exch def /cairo_point_x exch def } def
/Tj { show currentpoint cairo_store_point } bind def
/TJ {
  {
    dup
    type /stringtype eq
    { show } { -0.001 mul 0 cairo_font_matrix dtransform rmoveto } ifelse
  } forall
  currentpoint cairo_store_point
} bind def
/cairo_selectfont { cairo_font_matrix aload pop pop pop 0 0 6 array astore
    cairo_font exch selectfont cairo_point_x cairo_point_y moveto } bind def
/Tf { pop /cairo_font exch def /cairo_font_matrix where
      { pop cairo_selectfont } if } bind def
/Td { matrix translate cairo_font_matrix matrix concatmatrix dup
      /cairo_font_matrix exch def dup 4 get exch 5 get cairo_store_point
      /cairo_font where { pop cairo_selectfont } if } bind def
/Tm { 2 copy 8 2 roll 6 array astore /cairo_font_matrix exch def
      cairo_store_point /cairo_font where { pop cairo_selectfont } if } bind def
/g { setgray } bind def
/rg { setrgbcolor } bind def
/d1 { setcachedevice } bind def
%%EndProlog
%%BeginSetup
%%EndSetup
%%Page: 1 1
%%BeginPageSetup
%%PageBoundingBox: 0 -1 42 46
%%EndPageSetup
q 0 -1 42 47 rectclip q
0 g
40.344 36.752 m 39.691 39.232 37.773 41.596 34.949 43.408 c 33.051 44.631
 30.707 45.275 28.172 45.275 c 26.133 45.275 24.039 44.853 22.113 44.056
 c 21.969 43.998 l 21.891 43.963 21.816 43.931 21.734 43.9 c 21.363 43.771
 21.078 43.662 20.844 43.572 c 20.574 43.467 20.422 43.408 20.301 43.381
 c 22.422 41.318 l 25.094 39.045 25.082 36.799 25.066 32.724 c 25.066 31.674
 l 25.066 31.232 24.707 30.877 24.266 30.877 c 23.824 30.877 23.465 31.232
 23.465 31.674 c 23.469 32.732 l 23.484 36.674 23.488 38.306 21.348 40.135
 c 17.27 44.096 l 15.391 44.588 13.227 45.021 11.141 45.021 c 9.816 45.021
 8.633 44.842 7.621 44.482 c 3.039 42.861 -1.023 37.482 0.23 29.131 c 0.379
 28.142 0.523 27.146 0.672 26.146 c 1.719 18.935 2.805 11.474 5.594 4.74
 c 5.691 4.51 l 6.383 2.822 7.543 0.002 9.559 0.002 c 9.723 0.002 l 9.871
 0.064 l 11.723 0.846 12.414 2.623 12.922 3.924 c 13.262 4.799 13.566 5.689
 13.859 6.553 c 14.602 8.732 15.305 10.787 16.566 12.635 c 17.922 14.619
 19.633 15.756 21.258 15.756 c 21.973 15.756 22.699 15.541 23.41 15.115 
c 25.613 13.803 26.305 11.154 26.977 8.592 c 27.164 7.861 27.363 7.107 27.594
 6.4 c 28.602 3.299 29.91 0.127 32.008 0.127 c 32.992 0.127 33.863 0.818
 34.676 2.24 c 36.246 4.99 36.918 8.049 37.566 11.01 c 37.797 12.045 l 38.051
 13.189 38.336 14.369 38.625 15.576 c 40.262 22.369 42.113 30.064 40.344
 36.752 c h
14.664 34.877 m 13.395 34.877 l 11.465 32.943 l 11.465 31.674 l 11.465 
31.232 11.105 30.877 10.664 30.877 c 10.223 30.877 9.863 31.232 9.863 31.674
 c 9.863 32.943 l 7.934 34.877 l 6.664 34.877 l 6.223 34.877 5.863 35.232
 5.863 35.674 c 5.863 36.119 6.223 36.474 6.664 36.474 c 7.934 36.474 l 
9.863 38.408 l 9.863 39.674 l 9.863 40.119 10.223 40.474 10.664 40.474 c
 11.105 40.474 11.465 40.119 11.465 39.674 c 11.465 38.408 l 13.395 36.474
 l 14.664 36.474 l 15.105 36.474 15.465 36.119 15.465 35.674 c 15.465 35.232
 15.105 34.877 14.664 34.877 c h
35.465 20.474 m 34.195 20.474 l 32.266 18.545 l 32.266 17.275 l 32.266 
16.834 31.906 16.474 31.465 16.474 c 31.023 16.474 30.664 16.834 30.664 
17.275 c 30.664 18.545 l 28.734 20.474 l 27.465 20.474 l 27.023 20.474 26.664
 20.834 26.664 21.275 c 26.664 21.717 27.023 22.076 27.465 22.076 c 28.734
 22.076 l 30.664 24.006 l 30.664 25.275 l 30.664 25.717 31.023 26.076 31.465
 26.076 c 31.906 26.076 32.266 25.717 32.266 25.275 c 32.266 24.006 l 34.195
 22.076 l 35.465 22.076 l 35.906 22.076 36.266 21.717 36.266 21.275 c 36.266
 20.834 35.906 20.474 35.465 20.474 c h
35.465 20.474 m f
Q Q
showpage
%%Trailer
end restore
%%EOF
