%!PS-Adobe-3.0 EPSF-3.0
%%Creator: cairo 1.10.2 (http://cairographics.org)
%%CreationDate: Fri Jul  4 08:51:57 2014
%%Pages: 1
%%BoundingBox: 0 -1 12 8
%%DocumentData: Clean7Bit
%%LanguageLevel: 2
%%EndComments
%%BeginProlog
/cairo_eps_state save def
/dict_count countdictstack def
/op_count count 1 sub def
userdict begin
/q { gsave } bind def
/Q { grestore } bind def
/cm { 6 array astore concat } bind def
/w { setlinewidth } bind def
/J { setlinecap } bind def
/j { setlinejoin } bind def
/M { setmiterlimit } bind def
/d { setdash } bind def
/m { moveto } bind def
/l { lineto } bind def
/c { curveto } bind def
/h { closepath } bind def
/re { exch dup neg 3 1 roll 5 3 roll moveto 0 rlineto
      0 exch rlineto 0 rlineto closepath } bind def
/S { stroke } bind def
/f { fill } bind def
/f* { eofill } bind def
/n { newpath } bind def
/W { clip } bind def
/W* { eoclip } bind def
/BT { } bind def
/ET { } bind def
/pdfmark where { pop globaldict /?pdfmark /exec load put }
    { globaldict begin /?pdfmark /pop load def /pdfmark
    /cleartomark load def end } ifelse
/BDC { mark 3 1 roll /BDC pdfmark } bind def
/EMC { mark /EMC pdfmark } bind def
/cairo_store_point { /cairo_point_y exch def /cairo_point_x exch def } def
/Tj { show currentpoint cairo_store_point } bind def
/TJ {
  {
    dup
    type /stringtype eq
    { show } { -0.001 mul 0 cairo_font_matrix dtransform rmoveto } ifelse
  } forall
  currentpoint cairo_store_point
} bind def
/cairo_selectfont { cairo_font_matrix aload pop pop pop 0 0 6 array astore
    cairo_font exch selectfont cairo_point_x cairo_point_y moveto } bind def
/Tf { pop /cairo_font exch def /cairo_font_matrix where
      { pop cairo_selectfont } if } bind def
/Td { matrix translate cairo_font_matrix matrix concatmatrix dup
      /cairo_font_matrix exch def dup 4 get exch 5 get cairo_store_point
      /cairo_font where { pop cairo_selectfont } if } bind def
/Tm { 2 copy 8 2 roll 6 array astore /cairo_font_matrix exch def
      cairo_store_point /cairo_font where { pop cairo_selectfont } if } bind def
/g { setgray } bind def
/rg { setrgbcolor } bind def
/d1 { setcachedevice } bind def
%%EndProlog
%%Page: 1 1
%%BeginPageSetup
%%PageBoundingBox: 0 -1 12 8
%%EndPageSetup
q 0 -1 12 9 rectclip q
0 7.781 12 -8 re W n
0.00392157 0 0.00784314 rg
2.992 6.406 m 2.992 5.648 2.379 5.035 1.621 5.035 c 0.859 5.035 0.246 
5.648 0.246 6.406 c 0.246 7.164 0.859 7.781 1.621 7.781 c 2.379 7.781 
2.992 7.164 2.992 6.406 c h
9.008 6.406 m 9.008 5.648 9.621 5.035 10.379 5.035 c 11.141 5.035 
11.754 5.648 11.754 6.406 c 11.754 7.164 11.141 7.781 10.379 7.781 c 
9.621 7.781 9.008 7.164 9.008 6.406 c h
5.242 1.687 m 5.211 1.98 5.324 2.25 5.512 2.445 c 4.352 2.668 3.875 
3.234 3.461 3.75 c 3.258 4 3.066 4.238 2.812 4.406 c 2.805 4.414 2.793 
4.414 2.789 4.418 c 2.57 4.597 2.297 4.71 1.992 4.71 c 1.25 4.71 l 
0.562 4.71 0 4.152 0 3.464 c 0 -0 l 3.242 -0 l 3.242 2.238 l 3.715 
1.824 4.387 1.429 5.414 1.257 c 5.328 1.382 5.258 1.523 5.242 1.687 c h
10.75 4.71 m 10.008 4.71 l 9.707 4.71 9.43 4.597 9.215 4.418 c 9.207 
4.414 9.195 4.414 9.191 4.406 c 8.938 4.238 8.742 4 8.539 3.75 c 8.086 
3.187 7.57 2.543 6.129 2.382 c 5.801 2.347 5.566 2.054 5.602 1.726 c 
5.637 1.421 5.895 1.195 6.195 1.195 c 6.215 1.195 6.238 1.199 6.262 
1.199 c 7.48 1.335 8.238 1.769 8.758 2.23 c 8.758 -0 l 12 -0 l 12 3.464 
l 12 4.152 11.438 4.71 10.75 4.71 c h
10.75 4.71 m f
Q Q
showpage
%%Trailer
count op_count sub {pop} repeat
countdictstack dict_count sub {end} repeat
cairo_eps_state restore
%%EOF
