%!PS-Adobe-3.0 EPSF-3.0
%%Creator: cairo 1.14.2 (http://cairographics.org)
%%CreationDate: Tue May 10 11:19:38 2016
%%Pages: 1
%%DocumentData: Clean7Bit
%%LanguageLevel: 2
%%BoundingBox: 0 -1 41 45
%%EndComments
%%BeginProlog
save
50 dict begin
/q { gsave } bind def
/Q { grestore } bind def
/cm { 6 array astore concat } bind def
/w { setlinewidth } bind def
/J { setlinecap } bind def
/j { setlinejoin } bind def
/M { setmiterlimit } bind def
/d { setdash } bind def
/m { moveto } bind def
/l { lineto } bind def
/c { curveto } bind def
/h { closepath } bind def
/re { exch dup neg 3 1 roll 5 3 roll moveto 0 rlineto
      0 exch rlineto 0 rlineto closepath } bind def
/S { stroke } bind def
/f { fill } bind def
/f* { eofill } bind def
/n { newpath } bind def
/W { clip } bind def
/W* { eoclip } bind def
/BT { } bind def
/ET { } bind def
/pdfmark where { pop globaldict /?pdfmark /exec load put }
    { globaldict begin /?pdfmark /pop load def /pdfmark
    /cleartomark load def end } ifelse
/BDC { mark 3 1 roll /BDC pdfmark } bind def
/EMC { mark /EMC pdfmark } bind def
/cairo_store_point { /cairo_point_y exch def /cairo_point_x exch def } def
/Tj { show currentpoint cairo_store_point } bind def
/TJ {
  {
    dup
    type /stringtype eq
    { show } { -0.001 mul 0 cairo_font_matrix dtransform rmoveto } ifelse
  } forall
  currentpoint cairo_store_point
} bind def
/cairo_selectfont { cairo_font_matrix aload pop pop pop 0 0 6 array astore
    cairo_font exch selectfont cairo_point_x cairo_point_y moveto } bind def
/Tf { pop /cairo_font exch def /cairo_font_matrix where
      { pop cairo_selectfont } if } bind def
/Td { matrix translate cairo_font_matrix matrix concatmatrix dup
      /cairo_font_matrix exch def dup 4 get exch 5 get cairo_store_point
      /cairo_font where { pop cairo_selectfont } if } bind def
/Tm { 2 copy 8 2 roll 6 array astore /cairo_font_matrix exch def
      cairo_store_point /cairo_font where { pop cairo_selectfont } if } bind def
/g { setgray } bind def
/rg { setrgbcolor } bind def
/d1 { setcachedevice } bind def
%%EndProlog
%%BeginSetup
%%EndSetup
%%Page: 1 1
%%BeginPageSetup
%%PageBoundingBox: 0 -1 41 45
%%EndPageSetup
q 0 -1 41 46 rectclip q
0 g
22.285 29.105 m 32.859 36.316 l 28.969 42.015 l 27.777 43.757 25.797 44.8
 23.672 44.8 c 22.383 44.8 21.141 44.417 20.074 43.691 c 18.668 42.73 17.719
 41.273 17.402 39.589 c 17.086 37.905 17.438 36.202 18.398 34.796 c h
22.285 29.105 m f
38.895 27.48 m 33.766 34.995 l 23.188 27.784 l 28.324 20.261 l 29.516 18.519
 31.496 17.476 33.621 17.476 c 34.914 17.476 36.156 17.859 37.219 18.585
 c 40.133 20.573 40.883 24.566 38.895 27.48 c h
38.895 27.48 m f
22.691 16.905 m 24.984 19.589 24.664 23.636 21.98 25.929 c 20.824 26.913
 19.352 27.456 17.832 27.456 c 15.945 27.456 14.172 26.64 12.957 25.214 
c 8.504 20.003 l 17.836 11.214 l h
22.691 16.905 m f
7.465 18.784 m 1.531 11.831 l -0.762 9.144 -0.441 5.097 2.242 2.808 c 3.395
 1.823 4.867 1.28 6.391 1.28 c 8.273 1.28 10.051 2.097 11.266 3.519 c 16.797
 9.999 l h
7.465 18.784 m f
22.168 13.827 m 12.48 2.48 l 12.375 2.359 12.258 2.245 12.148 2.128 c 12.156
 2.128 12.164 2.128 12.172 2.124 c 21.508 1.015 l 23.285 13.691 l h
22.168 13.827 m f
31.16 12.757 m 24.875 13.503 l 23.098 0.827 l 29.648 0.046 l 29.902 0.015
 30.152 -0.001 30.402 -0.001 c 33.645 -0.001 36.375 2.425 36.758 5.644 c
 37.176 9.148 34.664 12.339 31.16 12.757 c h
31.16 12.757 m f
Q Q
showpage
%%Trailer
end restore
%%EOF
