%!PS-Adobe-3.0 EPSF-3.0
%%Creator: cairo 1.14.2 (http://cairographics.org)
%%CreationDate: Tue May 10 11:16:53 2016
%%Pages: 1
%%DocumentData: Clean7Bit
%%LanguageLevel: 2
%%BoundingBox: 0 -1 48 38
%%EndComments
%%BeginProlog
save
50 dict begin
/q { gsave } bind def
/Q { grestore } bind def
/cm { 6 array astore concat } bind def
/w { setlinewidth } bind def
/J { setlinecap } bind def
/j { setlinejoin } bind def
/M { setmiterlimit } bind def
/d { setdash } bind def
/m { moveto } bind def
/l { lineto } bind def
/c { curveto } bind def
/h { closepath } bind def
/re { exch dup neg 3 1 roll 5 3 roll moveto 0 rlineto
      0 exch rlineto 0 rlineto closepath } bind def
/S { stroke } bind def
/f { fill } bind def
/f* { eofill } bind def
/n { newpath } bind def
/W { clip } bind def
/W* { eoclip } bind def
/BT { } bind def
/ET { } bind def
/pdfmark where { pop globaldict /?pdfmark /exec load put }
    { globaldict begin /?pdfmark /pop load def /pdfmark
    /cleartomark load def end } ifelse
/BDC { mark 3 1 roll /BDC pdfmark } bind def
/EMC { mark /EMC pdfmark } bind def
/cairo_store_point { /cairo_point_y exch def /cairo_point_x exch def } def
/Tj { show currentpoint cairo_store_point } bind def
/TJ {
  {
    dup
    type /stringtype eq
    { show } { -0.001 mul 0 cairo_font_matrix dtransform rmoveto } ifelse
  } forall
  currentpoint cairo_store_point
} bind def
/cairo_selectfont { cairo_font_matrix aload pop pop pop 0 0 6 array astore
    cairo_font exch selectfont cairo_point_x cairo_point_y moveto } bind def
/Tf { pop /cairo_font exch def /cairo_font_matrix where
      { pop cairo_selectfont } if } bind def
/Td { matrix translate cairo_font_matrix matrix concatmatrix dup
      /cairo_font_matrix exch def dup 4 get exch 5 get cairo_store_point
      /cairo_font where { pop cairo_selectfont } if } bind def
/Tm { 2 copy 8 2 roll 6 array astore /cairo_font_matrix exch def
      cairo_store_point /cairo_font where { pop cairo_selectfont } if } bind def
/g { setgray } bind def
/rg { setrgbcolor } bind def
/d1 { setcachedevice } bind def
%%EndProlog
%%BeginSetup
%%EndSetup
%%Page: 1 1
%%BeginPageSetup
%%PageBoundingBox: 0 -1 48 38
%%EndPageSetup
q 0 -1 48 39 rectclip q
0 g
5.602 0.001 m 0 0.001 l 0 0.798 l 0 10.681 4.555 12.755 8.375 12.755 c 
11.004 12.755 13.477 11.755 14.555 11.251 c 16.168 12.83 18.105 13.177 19.5
 13.177 c 20.113 13.177 20.66 13.111 21.074 13.033 c 21.766 15.025 23.824
 16.201 24.801 16.666 c 24.801 20.068 l 22.809 21.302 22.234 23.509 22.066
 24.603 c 12.109 26.716 10.672 34.013 10.613 34.33 c 10.496 34.974 l 17.719
 37.83 l 17.914 36.908 l 17.949 36.759 18.754 33.369 22.734 32.427 c 23.711
 33.798 26.875 37.619 31.789 37.619 c 34.887 37.619 38.059 36.08 41.223 
33.048 c 47.004 27.505 48.75 19.466 45.777 12.076 c 42.844 4.779 36.125 
0.064 28.664 0.064 c 28.5 0.064 28.336 0.064 28.172 0.068 c 27.453 -0.014
 21.734 -0.518 15.055 3.275 c 14.57 2.884 13.758 2.416 12.648 2.416 c 11.242
 2.416 9.777 3.162 8.301 4.638 c 8.07 4.873 7.801 4.994 7.52 4.994 c 6.566
 4.998 5.602 3.556 5.602 0.798 c h
5.602 0.001 m f
Q Q
showpage
%%Trailer
end restore
%%EOF
